<?xml version="1.0" encoding="UTF-8"?>
<svg width="449px" height="491px" viewBox="0 0 449 491" version="1.1" xmlns="http://www.w3.org/2000/svg" xmlns:xlink="http://www.w3.org/1999/xlink">
    <!-- Generator: Sketch 51.1 (57501) - http://www.bohemiancoding.com/sketch -->
    <title>Path 9</title>
    <desc>Created with Sketch.</desc>
    <defs></defs>
    <g id="Дизайн" stroke="none" stroke-width="1" fill="none" fill-rule="evenodd">
        <g id="Surf-MacBook-13" transform="translate(-308.000000, -2262.000000)" fill="#13F882" fill-rule="nonzero">
            <path d="M640,2304 C560.529378,2490.76105 350.596732,2388.55367 312.413757,2557.14425 C274.230783,2725.73482 494.23569,2806.04964 667.764988,2714.42525 C841.294286,2622.80085 719.470622,2117.23895 640,2304 Z" id="Path-9"></path>
        </g>
    </g>
</svg>